<?xml version="1.0" encoding="UTF-8" standalone="no"?>
<!-- Created with Inkscape (http://www.inkscape.org/) -->

<svg
   width="50mm"
   height="50mm"
   viewBox="0 0 50 50"
   version="1.1"
   id="svg27290"
   inkscape:version="1.2.2 (b0a8486, 2022-12-01)"
   sodipodi:docname="ma-planete-logo.svg"
   xmlns:inkscape="http://www.inkscape.org/namespaces/inkscape"
   xmlns:sodipodi="http://sodipodi.sourceforge.net/DTD/sodipodi-0.dtd"
   xmlns:xlink="http://www.w3.org/1999/xlink"
   xmlns="http://www.w3.org/2000/svg"
   xmlns:svg="http://www.w3.org/2000/svg">
  <sodipodi:namedview
     id="namedview27292"
     pagecolor="#ffffff"
     bordercolor="#666666"
     borderopacity="1.0"
     inkscape:showpageshadow="false"
     inkscape:pageopacity="0.0"
     inkscape:pagecheckerboard="0"
     inkscape:deskcolor="#d1d1d1"
     inkscape:document-units="mm"
     showgrid="true"
     inkscape:zoom="4"
     inkscape:cx="92.5"
     inkscape:cy="86.125"
     inkscape:window-width="1920"
     inkscape:window-height="1029"
     inkscape:window-x="0"
     inkscape:window-y="25"
     inkscape:window-maximized="1"
     inkscape:current-layer="layer1"
     showguides="true"
     showborder="false"
     borderlayer="false"
     shape-rendering="auto">
    <sodipodi:guide
       position="0,25"
       orientation="0,-1"
       id="guide31007"
       inkscape:locked="false" />
    <sodipodi:guide
       position="25,47.5"
       orientation="1,0"
       id="guide31009"
       inkscape:locked="false" />
    <inkscape:grid
       type="xygrid"
       id="grid35805"
       units="mm"
       spacingx="0.5"
       spacingy="0.5" />
  </sodipodi:namedview>
  <defs
     id="defs27287">
    <linearGradient
       inkscape:collect="always"
       id="linearGradient47973">
      <stop
         style="stop-color:#005600;stop-opacity:1;"
         offset="0"
         id="stop47961" />
      <stop
         style="stop-color:#008800;stop-opacity:1;"
         offset="0.31353915"
         id="stop47963" />
      <stop
         style="stop-color:#00e100;stop-opacity:1;"
         offset="0.37693125"
         id="stop47965" />
      <stop
         style="stop-color:#f9ffff;stop-opacity:1;"
         offset="0.4013629"
         id="stop47967" />
      <stop
         style="stop-color:#f97200;stop-opacity:1;"
         offset="0.43445683"
         id="stop47969" />
      <stop
         style="stop-color:#ec0000;stop-opacity:1;"
         offset="1"
         id="stop47971" />
    </linearGradient>
    <linearGradient
       inkscape:collect="always"
       id="linearGradient27803">
      <stop
         style="stop-color:#000000;stop-opacity:0.65356272;"
         offset="0"
         id="stop27799" />
      <stop
         style="stop-color:#828282;stop-opacity:1;"
         offset="0.76327813"
         id="stop27807" />
      <stop
         style="stop-color:#000000;stop-opacity:0;"
         offset="1"
         id="stop27801" />
    </linearGradient>
    <radialGradient
       inkscape:collect="always"
       xlink:href="#linearGradient27803"
       id="radialGradient27805"
       cx="48.427177"
       cy="47.999493"
       fx="48.427177"
       fy="47.999493"
       r="9.3082666"
       gradientUnits="userSpaceOnUse"
       gradientTransform="matrix(1.0205984,0,0,1.0205984,-6.4870382,-5.1869607)" />
    <radialGradient
       inkscape:collect="always"
       xlink:href="#linearGradient47973"
       id="radialGradient36768"
       gradientUnits="userSpaceOnUse"
       gradientTransform="matrix(1.0301084,0,0,1.0301084,-53.440121,13.675072)"
       cx="46.103146"
       cy="45.9856"
       fx="46.103146"
       fy="45.9856"
       r="22.327747" />
    <radialGradient
       inkscape:collect="always"
       xlink:href="#linearGradient47973"
       id="radialGradient36772"
       gradientUnits="userSpaceOnUse"
       gradientTransform="matrix(1.0301084,0,0,1.0301084,-12.804207,3.2152418)"
       cx="46.103146"
       cy="45.9856"
       fx="46.103146"
       fy="45.9856"
       r="22.327747" />
    <radialGradient
       inkscape:collect="always"
       xlink:href="#linearGradient47973"
       id="radialGradient36776"
       gradientUnits="userSpaceOnUse"
       gradientTransform="matrix(1.0301084,0,0,1.0301084,11.60126,-30.917715)"
       cx="46.103146"
       cy="45.9856"
       fx="46.103146"
       fy="45.9856"
       r="22.327747" />
    <radialGradient
       inkscape:collect="always"
       xlink:href="#linearGradient47973"
       id="radialGradient36780"
       gradientUnits="userSpaceOnUse"
       gradientTransform="matrix(1.0301084,0,0,1.0301084,8.3566904,-72.752609)"
       cx="46.103146"
       cy="45.9856"
       fx="46.103146"
       fy="45.9856"
       r="22.327747" />
    <radialGradient
       inkscape:collect="always"
       xlink:href="#linearGradient47973"
       id="radialGradient36784"
       gradientUnits="userSpaceOnUse"
       gradientTransform="matrix(1.0301084,0,0,1.0301084,-21.019745,-102.71443)"
       cx="46.103146"
       cy="45.9856"
       fx="46.103146"
       fy="45.9856"
       r="22.327747" />
    <radialGradient
       inkscape:collect="always"
       xlink:href="#linearGradient47973"
       id="radialGradient36788"
       gradientUnits="userSpaceOnUse"
       gradientTransform="matrix(1.0301084,0,0,1.0301084,-62.782486,-106.78371)"
       cx="46.103146"
       cy="45.9856"
       fx="46.103146"
       fy="45.9856"
       r="22.327747" />
    <radialGradient
       inkscape:collect="always"
       xlink:href="#linearGradient47973"
       id="radialGradient36792"
       gradientUnits="userSpaceOnUse"
       gradientTransform="matrix(1.0301084,0,0,1.0301084,-97.390282,-83.056384)"
       cx="46.103146"
       cy="45.9856"
       fx="46.103146"
       fy="45.9856"
       r="22.327747" />
    <radialGradient
       inkscape:collect="always"
       xlink:href="#linearGradient47973"
       id="radialGradient36796"
       gradientUnits="userSpaceOnUse"
       gradientTransform="matrix(1.0301084,0,0,1.0301084,-108.64976,-42.634735)"
       cx="46.103146"
       cy="45.9856"
       fx="46.103146"
       fy="45.9856"
       r="22.327747" />
    <radialGradient
       inkscape:collect="always"
       xlink:href="#linearGradient47973"
       id="radialGradient36800"
       gradientUnits="userSpaceOnUse"
       gradientTransform="matrix(1.0301084,0,0,1.0301084,-91.292485,-4.4325024)"
       cx="46.103146"
       cy="45.9856"
       fx="46.103146"
       fy="45.9856"
       r="22.327747" />
  </defs>
  <g
     inkscape:label="Calque 1"
     inkscape:groupmode="layer"
     id="layer1"
     transform="translate(-17.937658,-18.801249)">
    <circle
       style="fill:url(#radialGradient27805);fill-opacity:1;stroke-width:1.0206;stroke-linecap:round;paint-order:stroke fill markers"
       id="path27411"
       cx="42.937656"
       cy="43.80125"
       r="9.5000019" />
    <path
       style="fill:url(#radialGradient36768);fill-opacity:1.0;stroke-width:1.03011;stroke-linecap:round;paint-order:stroke fill markers"
       id="path36766"
       transform="rotate(-50)"
       sodipodi:type="arc"
       sodipodi:cx="-5.948885"
       sodipodi:cy="61.045223"
       sodipodi:rx="6"
       sodipodi:ry="6"
       sodipodi:start="0"
       sodipodi:end="0.69745904"
       sodipodi:arc-type="slice"
       d="M 0.05111504,61.045223 A 6,6 0 0 1 -1.3500251,64.898856 L -5.948885,61.045223 Z"
       inkscape:transform-center-x="-11.317952"
       inkscape:transform-center-y="-8.8145362" />
    <path
       style="fill:url(#radialGradient36772);fill-opacity:1.0;stroke-width:1.03011;stroke-linecap:round;paint-order:stroke fill markers"
       id="path36770"
       transform="rotate(-10)"
       sodipodi:type="arc"
       sodipodi:cx="34.687027"
       sodipodi:cy="50.585392"
       sodipodi:rx="7"
       sodipodi:ry="7"
       sodipodi:start="0"
       sodipodi:end="0.69745904"
       sodipodi:arc-type="slice"
       d="m 41.687027,50.585392 a 7,7 0 0 1 -1.634663,4.495905 l -5.365337,-4.495905 z"
       inkscape:transform-center-x="-11.498638"
       inkscape:transform-center-y="3.7386441" />
    <path
       style="fill:url(#radialGradient36776);fill-opacity:1.0;stroke-width:1.03011;stroke-linecap:round;paint-order:stroke fill markers"
       id="path36774"
       transform="rotate(30)"
       sodipodi:type="arc"
       sodipodi:cx="59.092495"
       sodipodi:cy="16.452435"
       sodipodi:rx="9"
       sodipodi:ry="9"
       sodipodi:start="0"
       sodipodi:end="0.69745904"
       sodipodi:arc-type="slice"
       d="m 68.092495,16.452435 a 9,9 0 0 1 -2.10171,5.780449 l -6.89829,-5.780449 z"
       inkscape:transform-center-x="-9.9632005"
       inkscape:transform-center-y="10.797042" />
    <path
       style="fill:url(#radialGradient36780);fill-opacity:1.0;stroke-width:1.03011;stroke-linecap:round;paint-order:stroke fill markers"
       id="path36778"
       transform="rotate(70)"
       sodipodi:type="arc"
       sodipodi:cx="55.847927"
       sodipodi:cy="-25.38246"
       sodipodi:rx="21"
       sodipodi:ry="21"
       sodipodi:start="0"
       sodipodi:end="0.69745904"
       sodipodi:arc-type="slice"
       d="m 76.847927,-25.38246 a 21,21 0 0 1 -4.90399,13.487716 L 55.847927,-25.38246 Z"
       inkscape:transform-center-x="-0.014619839"
       inkscape:transform-center-y="11.497324" />
    <path
       style="fill:url(#radialGradient36784);fill-opacity:1.0;stroke-width:1.03011;stroke-linecap:round;paint-order:stroke fill markers"
       id="path36782"
       transform="rotate(110)"
       sodipodi:type="arc"
       sodipodi:cx="26.471491"
       sodipodi:cy="-55.344276"
       sodipodi:rx="16"
       sodipodi:ry="16"
       sodipodi:start="0"
       sodipodi:end="0.69745904"
       sodipodi:arc-type="slice"
       d="m 42.471491,-55.344276 a 16,16 0 0 1 -3.736374,10.276354 L 26.471491,-55.344276 Z"
       inkscape:transform-center-x="9.9480732"
       inkscape:transform-center-y="10.809139" />
    <path
       style="fill:url(#radialGradient36788);fill-opacity:1.0;stroke-width:1.03011;stroke-linecap:round;paint-order:stroke fill markers"
       id="path36786"
       transform="rotate(150)"
       sodipodi:type="arc"
       sodipodi:cx="-15.29125"
       sodipodi:cy="-59.413551"
       sodipodi:rx="13"
       sodipodi:ry="13"
       sodipodi:start="0"
       sodipodi:end="0.69745904"
       sodipodi:arc-type="slice"
       d="m -2.2912502,-59.413551 a 13,13 0 0 1 -3.0358036,8.349538 l -9.9641962,-8.349538 z"
       inkscape:transform-center-x="11.496089"
       inkscape:transform-center-y="3.767436" />
    <path
       style="fill:url(#radialGradient36792);fill-opacity:1.0;stroke-width:1.03011;stroke-linecap:round;paint-order:stroke fill markers"
       id="path36790"
       transform="rotate(-170)"
       sodipodi:type="arc"
       sodipodi:cx="-49.899044"
       sodipodi:cy="-35.686226"
       sodipodi:rx="20"
       sodipodi:ry="20"
       sodipodi:start="0"
       sodipodi:end="0.69745904"
       sodipodi:arc-type="slice"
       d="m -29.899044,-35.686226 a 20,20 0 0 1 -4.670467,12.845444 l -15.329533,-12.845444 z"
       inkscape:transform-center-x="11.326648"
       inkscape:transform-center-y="-8.7968349" />
    <path
       style="fill:url(#radialGradient36796);fill-opacity:1.0;fill-rule:nonzero;stroke-width:1.03011;stroke-linecap:round;paint-order:stroke fill markers"
       id="path36794"
       transform="rotate(-130)"
       sodipodi:type="arc"
       sodipodi:cx="-61.158524"
       sodipodi:cy="4.7354231"
       sodipodi:rx="18"
       sodipodi:ry="18"
       sodipodi:start="0"
       sodipodi:end="0.69745904"
       sodipodi:arc-type="slice"
       d="m -43.158524,4.7354231 a 18,18 0 0 1 -4.20342,11.5608989 L -61.158524,4.7354231 Z"
       inkscape:transform-center-x="7.398048"
       inkscape:transform-center-y="-11.49497" />
    <path
       style="fill:url(#radialGradient36800);fill-opacity:1.0;stroke-width:1.03011;stroke-linecap:round;paint-order:stroke fill markers"
       id="path36798"
       transform="rotate(-90)"
       sodipodi:type="arc"
       sodipodi:cx="-43.80125"
       sodipodi:cy="42.937656"
       sodipodi:rx="23"
       sodipodi:ry="23"
       sodipodi:start="0"
       sodipodi:end="0.69745904"
       sodipodi:arc-type="slice"
       d="m -20.80125,42.937656 a 23,23 0 0 1 -5.371038,14.77226 L -43.80125,42.937656 Z"
       inkscape:transform-center-x="-7.3783102"
       inkscape:transform-center-y="-11.499998" />
    <rect
       style="fill:none;fill-opacity:0.311706;stroke:none;stroke-width:0;stroke-linecap:round;stroke-dasharray:none;paint-order:stroke fill markers"
       id="rect28661"
       width="52.51923"
       height="52.519234"
       x="17.937658"
       y="18.801249"
       ry="3.6703529" />
    <path
       style="fill:none;stroke:#ffffff;stroke-width:0.399465px;stroke-linecap:butt;stroke-linejoin:miter;stroke-opacity:1"
       d="M 42.937926,43.801247 42.93739,20.80125"
       id="path31252"
       sodipodi:nodetypes="cc"
       inkscape:transform-center-y="-11.5" />
    <path
       style="fill:none;stroke:#ffffff;stroke-width:0.399465px;stroke-linecap:butt;stroke-linejoin:miter;stroke-opacity:1"
       d="M 42.937864,43.80142 57.721567,26.182055"
       id="path36621"
       sodipodi:nodetypes="cc"
       inkscape:transform-center-y="-8.809511"
       inkscape:transform-center-x="-7.3920575" />
    <path
       style="fill:none;stroke:#ffffff;stroke-width:0.399465px;stroke-linecap:butt;stroke-linejoin:miter;stroke-opacity:1"
       d="M 42.937706,43.801512 65.588189,39.807077"
       id="path36623"
       sodipodi:nodetypes="cc"
       inkscape:transform-center-y="-1.996954"
       inkscape:transform-center-x="-11.32529" />
    <path
       style="fill:none;stroke:#ffffff;stroke-width:0.399465px;stroke-linecap:butt;stroke-linejoin:miter;stroke-opacity:1"
       d="m 42.937525,43.801482 19.91885,11.499535"
       id="path36625"
       sodipodi:nodetypes="cc"
       inkscape:transform-center-y="5.750001"
       inkscape:transform-center-x="-9.9592925" />
    <path
       style="fill:none;stroke:#ffffff;stroke-width:0.399465px;stroke-linecap:butt;stroke-linejoin:miter;stroke-opacity:1"
       d="m 42.937406,43.801342 7.866966,21.612745"
       id="path36627"
       sodipodi:nodetypes="cc"
       inkscape:transform-center-y="10.806466"
       inkscape:transform-center-x="-3.9332315" />
    <path
       style="fill:none;stroke:#ffffff;stroke-width:0.399465px;stroke-linecap:butt;stroke-linejoin:miter;stroke-opacity:1"
       d="M 42.937405,43.801158 35.071446,65.41427"
       id="path36629"
       sodipodi:nodetypes="cc"
       inkscape:transform-center-y="10.806466"
       inkscape:transform-center-x="3.933232" />
    <path
       style="fill:none;stroke:#ffffff;stroke-width:0.399465px;stroke-linecap:butt;stroke-linejoin:miter;stroke-opacity:1"
       d="M 42.937522,43.801017 23.019207,55.30148"
       id="path36631"
       sodipodi:nodetypes="cc"
       inkscape:transform-center-y="5.7500005"
       inkscape:transform-center-x="9.959293" />
    <path
       style="fill:none;stroke:#ffffff;stroke-width:0.399465px;stroke-linecap:butt;stroke-linejoin:miter;stroke-opacity:1"
       d="M 42.937702,43.800984 20.287033,39.807604"
       id="path36633"
       sodipodi:nodetypes="cc"
       inkscape:transform-center-y="-1.996954"
       inkscape:transform-center-x="11.32529" />
    <path
       style="fill:none;stroke:#ffffff;stroke-width:0.399465px;stroke-linecap:butt;stroke-linejoin:miter;stroke-opacity:1"
       d="M 42.937861,43.801074 28.153337,26.182398"
       id="path36635"
       sodipodi:nodetypes="cc"
       inkscape:transform-center-y="-8.809512"
       inkscape:transform-center-x="7.3920585" />
  </g>
</svg>
