<?xml version="1.0" encoding="UTF-8" standalone="no"?>
<!-- Created with Inkscape (http://www.inkscape.org/) -->

<svg
   xmlns:dc="http://purl.org/dc/elements/1.1/"
   xmlns:cc="http://creativecommons.org/ns#"
   xmlns:rdf="http://www.w3.org/1999/02/22-rdf-syntax-ns#"
   xmlns:svg="http://www.w3.org/2000/svg"
   xmlns="http://www.w3.org/2000/svg"
   xmlns:sodipodi="http://sodipodi.sourceforge.net/DTD/sodipodi-0.dtd"
   xmlns:inkscape="http://www.inkscape.org/namespaces/inkscape"
   width="214mm"
   height="100mm"
   viewBox="0 0 214 100"
   version="1.1"
   id="svg8"
   inkscape:version="0.92.5 (2060ec1f9f, 2020-04-08)"
   sodipodi:docname="plan-portail.svg"
   inkscape:export-filename="/home/guillaume/ma-planete.info/plan-portail.png"
   inkscape:export-xdpi="300"
   inkscape:export-ydpi="300">
  <title
     id="title5599">Plan du portail &quot;Ma Planète&quot;</title>
  <defs
     id="defs2" />
  <sodipodi:namedview
     id="base"
     pagecolor="#ffffff"
     bordercolor="#666666"
     borderopacity="1.0"
     inkscape:pageopacity="0.0"
     inkscape:pageshadow="2"
     inkscape:zoom="0.98994949"
     inkscape:cx="471.70982"
     inkscape:cy="374.47922"
     inkscape:document-units="mm"
     inkscape:current-layer="layer1"
     showgrid="true"
     inkscape:window-width="1920"
     inkscape:window-height="1029"
     inkscape:window-x="0"
     inkscape:window-y="25"
     inkscape:window-maximized="1"
     showguides="true"
     inkscape:guide-bbox="true"
     showborder="true">
    <inkscape:grid
       type="xygrid"
       id="grid817"
       snapvisiblegridlinesonly="true"
       visible="true"
       dotted="true" />
  </sodipodi:namedview>
  <metadata
     id="metadata5">
    <rdf:RDF>
      <cc:Work
         rdf:about="">
        <dc:format>image/svg+xml</dc:format>
        <dc:type
           rdf:resource="http://purl.org/dc/dcmitype/StillImage" />
        <dc:title>Plan du portail &quot;Ma Planète&quot;</dc:title>
        <cc:license
           rdf:resource="http://creativecommons.org/licenses/by-sa/4.0/" />
        <dc:creator>
          <cc:Agent>
            <dc:title>Guillaume Ponçon</dc:title>
          </cc:Agent>
        </dc:creator>
      </cc:Work>
      <cc:License
         rdf:about="http://creativecommons.org/licenses/by-sa/4.0/">
        <cc:permits
           rdf:resource="http://creativecommons.org/ns#Reproduction" />
        <cc:permits
           rdf:resource="http://creativecommons.org/ns#Distribution" />
        <cc:requires
           rdf:resource="http://creativecommons.org/ns#Notice" />
        <cc:requires
           rdf:resource="http://creativecommons.org/ns#Attribution" />
        <cc:permits
           rdf:resource="http://creativecommons.org/ns#DerivativeWorks" />
        <cc:requires
           rdf:resource="http://creativecommons.org/ns#ShareAlike" />
      </cc:License>
    </rdf:RDF>
  </metadata>
  <g
     inkscape:label="Calque 1"
     inkscape:groupmode="layer"
     id="layer1"
     transform="translate(0,-197)">
    <rect
       style="opacity:1;fill:#d0d0d0;fill-opacity:1;stroke:#040000;stroke-width:0.5;stroke-linecap:round;stroke-linejoin:round;stroke-miterlimit:4;stroke-dasharray:none;stroke-opacity:1;paint-order:stroke fill markers"
       id="rect819"
       width="52.916676"
       height="13.229169"
       x="84.64756"
       y="202.02974" />
    <text
       xml:space="preserve"
       style="font-style:normal;font-variant:normal;font-weight:normal;font-stretch:normal;font-size:25.39999962px;line-height:1.25;font-family:'DejaVu Serif';-inkscape-font-specification:'DejaVu Serif';letter-spacing:0px;word-spacing:0px;fill:#000000;fill-opacity:1;stroke:none;stroke-width:0.26458332"
       x="101.64136"
       y="210.27214"
       id="text823"><tspan
         sodipodi:role="line"
         x="101.64136"
         y="210.27214"
         style="font-style:normal;font-variant:normal;font-weight:normal;font-stretch:normal;font-size:6.3499999px;font-family:'Gentium Basic';-inkscape-font-specification:'Gentium Basic';stroke-width:0.26458332"
         id="tspan4529">Accueil</tspan></text>
    <rect
       style="opacity:1;fill:#c2e9ff;fill-opacity:0.99415205;stroke:#040000;stroke-width:0.5;stroke-linecap:round;stroke-linejoin:round;stroke-miterlimit:4;stroke-dasharray:1.50000004, 1.50000004;stroke-dashoffset:0;stroke-opacity:1;paint-order:stroke fill markers"
       id="rect819-1-6-0"
       width="87.3125"
       height="52.916676"
       x="2.62674"
       y="233.77975" />
    <text
       xml:space="preserve"
       style="font-style:normal;font-variant:normal;font-weight:normal;font-stretch:normal;font-size:25.39999962px;line-height:1.25;font-family:'DejaVu Serif';-inkscape-font-specification:'DejaVu Serif';letter-spacing:0px;word-spacing:0px;fill:#000000;fill-opacity:1;stroke:none;stroke-width:0.26458332"
       x="35.409233"
       y="240.13226"
       id="text823-7"><tspan
         sodipodi:role="line"
         x="35.409233"
         y="240.13226"
         style="font-style:normal;font-variant:normal;font-weight:normal;font-stretch:normal;font-size:4.93888903px;font-family:'Gentium Basic';-inkscape-font-specification:'Gentium Basic';stroke-width:0.26458332"
         id="tspan4529-0">Apprendre</tspan></text>
    <rect
       style="opacity:1;fill:#aeffb5;fill-opacity:1;stroke:#040000;stroke-width:0.5;stroke-linecap:round;stroke-linejoin:round;stroke-miterlimit:4;stroke-dasharray:1.50000004, 1.50000004;stroke-dashoffset:0;stroke-opacity:1;paint-order:stroke fill markers"
       id="rect819-1-6-0-8"
       width="39.687492"
       height="52.916676"
       x="92.585075"
       y="233.77975" />
    <text
       xml:space="preserve"
       style="font-style:normal;font-variant:normal;font-weight:normal;font-stretch:normal;font-size:25.39999962px;line-height:1.25;font-family:'DejaVu Serif';-inkscape-font-specification:'DejaVu Serif';letter-spacing:0px;word-spacing:0px;fill:#000000;fill-opacity:1;stroke:none;stroke-width:0.26458332"
       x="103.4227"
       y="240.13226"
       id="text823-7-5"><tspan
         sodipodi:role="line"
         x="103.4227"
         y="240.13226"
         style="font-style:normal;font-variant:normal;font-weight:normal;font-stretch:normal;font-size:4.93888903px;font-family:'Gentium Basic';-inkscape-font-specification:'Gentium Basic';stroke-width:0.26458332"
         id="tspan4529-0-3">Accepter</tspan></text>
    <rect
       style="opacity:0.98000004;fill:#ffe7c2;fill-opacity:1;stroke:#040000;stroke-width:0.5;stroke-linecap:round;stroke-linejoin:round;stroke-miterlimit:4;stroke-dasharray:1.50000004, 1.50000004;stroke-dashoffset:0;stroke-opacity:1;paint-order:stroke fill markers"
       id="rect819-1-6-0-8-9"
       width="76.729164"
       height="52.916676"
       x="134.91841"
       y="233.77974" />
    <text
       xml:space="preserve"
       style="font-style:normal;font-variant:normal;font-weight:normal;font-stretch:normal;font-size:25.39999962px;line-height:1.25;font-family:'DejaVu Serif';-inkscape-font-specification:'DejaVu Serif';letter-spacing:0px;word-spacing:0px;fill:#000000;fill-opacity:1;stroke:none;stroke-width:0.26458332"
       x="169.00113"
       y="239.94327"
       id="text823-7-5-5"><tspan
         sodipodi:role="line"
         x="169.00113"
         y="239.94327"
         style="font-style:normal;font-variant:normal;font-weight:normal;font-stretch:normal;font-size:4.93888903px;font-family:'Gentium Basic';-inkscape-font-specification:'Gentium Basic';stroke-width:0.26458332"
         id="tspan4529-0-3-4">Agir</tspan></text>
    <rect
       style="opacity:1;fill:#82d2ff;fill-opacity:1;stroke:#040000;stroke-width:0.5;stroke-linecap:round;stroke-linejoin:round;stroke-miterlimit:4;stroke-dasharray:1.00000003, 1.00000003;stroke-dashoffset:0;stroke-opacity:1;paint-order:stroke fill markers"
       id="rect819-1"
       width="23.8125"
       height="39.687492"
       x="5.2725735"
       y="244.36308" />
    <rect
       style="opacity:1;fill:#82d2ff;fill-opacity:0.92982459;stroke:#040000;stroke-width:0.5;stroke-linecap:round;stroke-linejoin:round;stroke-miterlimit:4;stroke-dasharray:1.00000003, 1.00000003;stroke-dashoffset:0;stroke-opacity:1;paint-order:stroke fill markers"
       id="rect819-1-5"
       width="23.812496"
       height="39.687492"
       x="31.730909"
       y="244.36308" />
    <rect
       style="opacity:1;fill:#82d2ff;fill-opacity:1;stroke:#040000;stroke-width:0.5;stroke-linecap:round;stroke-linejoin:round;stroke-miterlimit:4;stroke-dasharray:1.00000003, 1.00000003;stroke-dashoffset:0;stroke-opacity:1;paint-order:stroke fill markers"
       id="rect819-1-5-5"
       width="29.104162"
       height="39.687492"
       x="58.18924"
       y="244.36308" />
    <rect
       style="opacity:1;fill:#ffc364;fill-opacity:0.98099419;stroke:#040000;stroke-width:0.5;stroke-linecap:round;stroke-linejoin:round;stroke-miterlimit:4;stroke-dasharray:1, 1;stroke-dashoffset:0;stroke-opacity:1;paint-order:stroke fill markers"
       id="rect819-1-3"
       width="34.395832"
       height="39.687492"
       x="137.56424"
       y="244.3631" />
    <rect
       style="opacity:1;fill:#ffc364;fill-opacity:0.98099419;stroke:#040000;stroke-width:0.5;stroke-linecap:round;stroke-linejoin:round;stroke-miterlimit:4;stroke-dasharray:1, 1;stroke-dashoffset:0;stroke-opacity:1;paint-order:stroke fill markers"
       id="rect819-1-3-8"
       width="34.39584"
       height="39.687492"
       x="174.60591"
       y="244.36308" />
    <text
       xml:space="preserve"
       style="font-style:normal;font-variant:normal;font-weight:normal;font-stretch:normal;font-size:25.39999962px;line-height:1.25;font-family:'DejaVu Serif';-inkscape-font-specification:'DejaVu Serif';letter-spacing:0px;word-spacing:0px;fill:#000000;fill-opacity:1;stroke:none;stroke-width:0.26458332"
       x="11.370307"
       y="249.51451"
       id="text823-7-52"><tspan
         sodipodi:role="line"
         x="11.370307"
         y="249.51451"
         style="font-style:normal;font-variant:normal;font-weight:normal;font-stretch:normal;font-size:3.88055563px;font-family:'Gentium Basic';-inkscape-font-specification:'Gentium Basic';stroke-width:0.26458332"
         id="tspan4529-0-2">Limites</tspan></text>
    <text
       xml:space="preserve"
       style="font-style:normal;font-variant:normal;font-weight:normal;font-stretch:normal;font-size:25.39999962px;line-height:1.25;font-family:'DejaVu Serif';-inkscape-font-specification:'DejaVu Serif';letter-spacing:0px;word-spacing:0px;fill:#000000;fill-opacity:1;stroke:none;stroke-width:0.26458332"
       x="38.303291"
       y="249.45766"
       id="text823-7-52-2"><tspan
         sodipodi:role="line"
         x="38.303291"
         y="249.45766"
         style="font-style:normal;font-variant:normal;font-weight:normal;font-stretch:normal;font-size:3.88055563px;font-family:'Gentium Basic';-inkscape-font-specification:'Gentium Basic';stroke-width:0.26458332"
         id="tspan4529-0-2-7">Causes</tspan></text>
    <text
       xml:space="preserve"
       style="font-style:normal;font-variant:normal;font-weight:normal;font-stretch:normal;font-size:25.39999962px;line-height:1.25;font-family:'DejaVu Serif';-inkscape-font-specification:'DejaVu Serif';letter-spacing:0px;word-spacing:0px;fill:#000000;fill-opacity:1;stroke:none;stroke-width:0.26458332"
       x="61.541142"
       y="249.24149"
       id="text823-7-52-2-0"><tspan
         sodipodi:role="line"
         x="61.541142"
         y="249.24149"
         style="font-style:normal;font-variant:normal;font-weight:normal;font-stretch:normal;font-size:3.88055563px;font-family:'Gentium Basic';-inkscape-font-specification:'Gentium Basic';stroke-width:0.26458332"
         id="tspan4529-0-2-7-3">Conséquences</tspan></text>
    <text
       xml:space="preserve"
       style="font-style:normal;font-variant:normal;font-weight:normal;font-stretch:normal;font-size:25.39999962px;line-height:1.25;font-family:'DejaVu Serif';-inkscape-font-specification:'DejaVu Serif';letter-spacing:0px;word-spacing:0px;fill:#000000;fill-opacity:1;stroke:none;stroke-width:0.26458332"
       x="141.01726"
       y="249.36331"
       id="text823-7-52-4"><tspan
         sodipodi:role="line"
         x="141.01726"
         y="249.36331"
         style="font-style:normal;font-variant:normal;font-weight:normal;font-stretch:normal;font-size:3.88055563px;font-family:'Gentium Basic';-inkscape-font-specification:'Gentium Basic';stroke-width:0.26458332"
         id="tspan4529-0-2-6">Sauver la planète</tspan></text>
    <text
       xml:space="preserve"
       style="font-style:normal;font-variant:normal;font-weight:normal;font-stretch:normal;font-size:25.39999962px;line-height:1.25;font-family:'DejaVu Serif';-inkscape-font-specification:'DejaVu Serif';letter-spacing:0px;word-spacing:0px;fill:#000000;fill-opacity:1;stroke:none;stroke-width:0.26458332"
       x="178.81496"
       y="249.3633"
       id="text823-7-52-4-3"><tspan
         sodipodi:role="line"
         x="178.81496"
         y="249.3633"
         style="font-style:normal;font-variant:normal;font-weight:normal;font-stretch:normal;font-size:3.88055563px;font-family:'Gentium Basic';-inkscape-font-specification:'Gentium Basic';stroke-width:0.26458332"
         id="tspan4529-0-2-6-6">Notre Résilience</tspan></text>
    <path
       style="opacity:1;fill:#ffffff;fill-opacity:0.98391819;stroke:#040000;stroke-width:0.5;stroke-linecap:round;stroke-linejoin:round;stroke-miterlimit:4;stroke-dasharray:none;stroke-opacity:1;paint-order:stroke fill markers"
       d="M 95.230907,248.23734 V 245.686 h 17.103423 17.10343 v 2.55134 2.55134 H 112.33433 95.230907 Z"
       id="path4873"
       inkscape:connector-curvature="0" />
    <rect
       style="opacity:1;fill:#ffffff;fill-opacity:0.99607843;stroke:#040000;stroke-width:0.5;stroke-linecap:round;stroke-linejoin:round;stroke-miterlimit:4;stroke-dasharray:none;stroke-dashoffset:0;stroke-opacity:1;paint-order:stroke fill markers"
       id="rect4879"
       width="18.520834"
       height="5.2916665"
       x="7.9184065"
       y="252.30058" />
    <rect
       style="opacity:1;fill:#ffffff;fill-opacity:0.99607843;stroke:#040000;stroke-width:0.5;stroke-linecap:round;stroke-linejoin:round;stroke-miterlimit:4;stroke-dasharray:none;stroke-dashoffset:0;stroke-opacity:1;paint-order:stroke fill markers"
       id="rect4879-3"
       width="18.520834"
       height="5.2916665"
       x="7.9184065"
       y="260.23807" />
    <rect
       style="opacity:1;fill:#ffffff;fill-opacity:0.99607843;stroke:#040000;stroke-width:0.5;stroke-linecap:round;stroke-linejoin:round;stroke-miterlimit:4;stroke-dasharray:none;stroke-dashoffset:0;stroke-opacity:1;paint-order:stroke fill markers"
       id="rect4879-34"
       width="18.520834"
       height="5.2916665"
       x="7.918406"
       y="268.17557" />
    <rect
       style="opacity:1;fill:#ffffff;fill-opacity:0.99607843;stroke:#040000;stroke-width:0.5;stroke-linecap:round;stroke-linejoin:round;stroke-miterlimit:4;stroke-dasharray:none;stroke-dashoffset:0;stroke-opacity:1;paint-order:stroke fill markers"
       id="rect4879-3-4"
       width="18.520834"
       height="5.2916665"
       x="7.918406"
       y="276.11307" />
    <text
       xml:space="preserve"
       style="font-style:normal;font-variant:normal;font-weight:normal;font-stretch:normal;font-size:3.17499995px;line-height:1.25;font-family:'DejaVu Serif';-inkscape-font-specification:'DejaVu Serif';letter-spacing:0px;word-spacing:0px;fill:#000000;fill-opacity:1;stroke:none;stroke-width:0.26458332"
       x="12.885287"
       y="256.12463"
       id="text823-7-52-3"><tspan
         sodipodi:role="line"
         x="12.885287"
         y="256.12463"
         style="font-style:normal;font-variant:normal;font-weight:normal;font-stretch:normal;font-size:3.17499995px;font-family:'Gentium Basic';-inkscape-font-specification:'Gentium Basic';stroke-width:0.26458332"
         id="tspan4529-0-2-9">Climat</tspan></text>
    <text
       xml:space="preserve"
       style="font-style:normal;font-variant:normal;font-weight:normal;font-stretch:normal;font-size:3.17499995px;line-height:1.25;font-family:'DejaVu Serif';-inkscape-font-specification:'DejaVu Serif';letter-spacing:0px;word-spacing:0px;fill:#000000;fill-opacity:1;stroke:none;stroke-width:0.26458332"
       x="9.3839502"
       y="264.06213"
       id="text823-7-52-3-8"><tspan
         sodipodi:role="line"
         x="9.3839502"
         y="264.06213"
         style="font-style:normal;font-variant:normal;font-weight:normal;font-stretch:normal;font-size:3.17499995px;font-family:'Gentium Basic';-inkscape-font-specification:'Gentium Basic';stroke-width:0.26458332"
         id="tspan4529-0-2-9-6">Biodiversité</tspan></text>
    <text
       xml:space="preserve"
       style="font-style:normal;font-variant:normal;font-weight:normal;font-stretch:normal;font-size:3.17499995px;line-height:1.25;font-family:'DejaVu Serif';-inkscape-font-specification:'DejaVu Serif';letter-spacing:0px;word-spacing:0px;fill:#000000;fill-opacity:1;stroke:none;stroke-width:0.26458332"
       x="14.561153"
       y="271.99963"
       id="text823-7-52-3-8-4"><tspan
         sodipodi:role="line"
         x="14.561153"
         y="271.99963"
         style="font-style:normal;font-variant:normal;font-weight:normal;font-stretch:normal;font-size:3.17499995px;font-family:'Gentium Basic';-inkscape-font-specification:'Gentium Basic';stroke-width:0.26458332"
         id="tspan4529-0-2-9-6-0">Sols</tspan></text>
    <text
       xml:space="preserve"
       style="font-style:normal;font-variant:normal;font-weight:normal;font-stretch:normal;font-size:3.17499995px;line-height:1.25;font-family:'DejaVu Serif';-inkscape-font-specification:'DejaVu Serif';letter-spacing:0px;word-spacing:0px;fill:#000000;fill-opacity:1;stroke:none;stroke-width:0.26458332"
       x="16.064163"
       y="278.91083"
       id="text823-7-52-3-8-4-3"><tspan
         sodipodi:role="line"
         x="16.064163"
         y="278.91083"
         style="font-style:normal;font-variant:normal;font-weight:normal;font-stretch:normal;font-size:3.17499995px;font-family:'Gentium Basic';-inkscape-font-specification:'Gentium Basic';stroke-width:0.26458332"
         id="tspan4529-0-2-9-6-0-5">...</tspan></text>
    <rect
       style="opacity:1;fill:#ffffff;fill-opacity:0.99607843;stroke:#040000;stroke-width:0.5;stroke-linecap:round;stroke-linejoin:round;stroke-miterlimit:4;stroke-dasharray:none;stroke-dashoffset:0;stroke-opacity:1;paint-order:stroke fill markers"
       id="rect4879-5"
       width="18.520834"
       height="5.2916665"
       x="34.37674"
       y="252.30058" />
    <rect
       style="opacity:1;fill:#ffffff;fill-opacity:0.99607843;stroke:#040000;stroke-width:0.5;stroke-linecap:round;stroke-linejoin:round;stroke-miterlimit:4;stroke-dasharray:none;stroke-dashoffset:0;stroke-opacity:1;paint-order:stroke fill markers"
       id="rect4879-3-0"
       width="18.520834"
       height="5.2916665"
       x="34.37674"
       y="260.23807" />
    <rect
       style="opacity:1;fill:#ffffff;fill-opacity:0.99607843;stroke:#040000;stroke-width:0.5;stroke-linecap:round;stroke-linejoin:round;stroke-miterlimit:4;stroke-dasharray:none;stroke-dashoffset:0;stroke-opacity:1;paint-order:stroke fill markers"
       id="rect4879-34-9"
       width="18.520834"
       height="5.2916665"
       x="34.37674"
       y="268.17557" />
    <rect
       style="opacity:1;fill:#ffffff;fill-opacity:0.99607843;stroke:#040000;stroke-width:0.5;stroke-linecap:round;stroke-linejoin:round;stroke-miterlimit:4;stroke-dasharray:none;stroke-dashoffset:0;stroke-opacity:1;paint-order:stroke fill markers"
       id="rect4879-3-4-9"
       width="18.520834"
       height="5.2916665"
       x="34.37674"
       y="276.11307" />
    <text
       xml:space="preserve"
       style="font-style:normal;font-variant:normal;font-weight:normal;font-stretch:normal;font-size:3.17499995px;line-height:1.25;font-family:'DejaVu Serif';-inkscape-font-specification:'DejaVu Serif';letter-spacing:0px;word-spacing:0px;fill:#000000;fill-opacity:1;stroke:none;stroke-width:0.26458332"
       x="36.258537"
       y="256.12463"
       id="text823-7-52-3-80"><tspan
         sodipodi:role="line"
         x="36.258537"
         y="256.12463"
         style="font-style:normal;font-variant:normal;font-weight:normal;font-stretch:normal;font-size:3.17499995px;font-family:'Gentium Basic';-inkscape-font-specification:'Gentium Basic';stroke-width:0.26458332"
         id="tspan4529-0-2-9-2">Pétrole Gaz</tspan></text>
    <text
       xml:space="preserve"
       style="font-style:normal;font-variant:normal;font-weight:normal;font-stretch:normal;font-size:3.17499995px;line-height:1.25;font-family:'DejaVu Serif';-inkscape-font-specification:'DejaVu Serif';letter-spacing:0px;word-spacing:0px;fill:#000000;fill-opacity:1;stroke:none;stroke-width:0.26458332"
       x="40.475334"
       y="264.06213"
       id="text823-7-52-3-8-49"><tspan
         sodipodi:role="line"
         x="40.475334"
         y="264.06213"
         style="font-style:normal;font-variant:normal;font-weight:normal;font-stretch:normal;font-size:3.17499995px;font-family:'Gentium Basic';-inkscape-font-specification:'Gentium Basic';stroke-width:0.26458332"
         id="tspan4529-0-2-9-6-01">Tech</tspan></text>
    <text
       xml:space="preserve"
       style="font-style:normal;font-variant:normal;font-weight:normal;font-stretch:normal;font-size:3.17499995px;line-height:1.25;font-family:'DejaVu Serif';-inkscape-font-specification:'DejaVu Serif';letter-spacing:0px;word-spacing:0px;fill:#000000;fill-opacity:1;stroke:none;stroke-width:0.26458332"
       x="39.72887"
       y="271.99963"
       id="text823-7-52-3-8-4-2"><tspan
         sodipodi:role="line"
         x="39.72887"
         y="271.99963"
         style="font-style:normal;font-variant:normal;font-weight:normal;font-stretch:normal;font-size:3.17499995px;font-family:'Gentium Basic';-inkscape-font-specification:'Gentium Basic';stroke-width:0.26458332"
         id="tspan4529-0-2-9-6-0-0">Mines</tspan></text>
    <text
       xml:space="preserve"
       style="font-style:normal;font-variant:normal;font-weight:normal;font-stretch:normal;font-size:3.17499995px;line-height:1.25;font-family:'DejaVu Serif';-inkscape-font-specification:'DejaVu Serif';letter-spacing:0px;word-spacing:0px;fill:#000000;fill-opacity:1;stroke:none;stroke-width:0.26458332"
       x="42.522495"
       y="278.91083"
       id="text823-7-52-3-8-4-3-0"><tspan
         sodipodi:role="line"
         x="42.522495"
         y="278.91083"
         style="font-style:normal;font-variant:normal;font-weight:normal;font-stretch:normal;font-size:3.17499995px;font-family:'Gentium Basic';-inkscape-font-specification:'Gentium Basic';stroke-width:0.26458332"
         id="tspan4529-0-2-9-6-0-5-6">...</tspan></text>
    <rect
       style="opacity:1;fill:#ffffff;fill-opacity:0.99607843;stroke:#040000;stroke-width:0.56694663;stroke-linecap:round;stroke-linejoin:round;stroke-miterlimit:4;stroke-dasharray:none;stroke-dashoffset:0;stroke-opacity:1;paint-order:stroke fill markers"
       id="rect4879-5-3"
       width="23.812494"
       height="5.2916665"
       x="60.835072"
       y="252.30058" />
    <rect
       style="opacity:1;fill:#ffffff;fill-opacity:0.99607843;stroke:#040000;stroke-width:0.56694663;stroke-linecap:round;stroke-linejoin:round;stroke-miterlimit:4;stroke-dasharray:none;stroke-dashoffset:0;stroke-opacity:1;paint-order:stroke fill markers"
       id="rect4879-3-0-9"
       width="23.812494"
       height="5.2916665"
       x="60.835072"
       y="260.23807" />
    <rect
       style="opacity:1;fill:#ffffff;fill-opacity:0.99607843;stroke:#040000;stroke-width:0.56694663;stroke-linecap:round;stroke-linejoin:round;stroke-miterlimit:4;stroke-dasharray:none;stroke-dashoffset:0;stroke-opacity:1;paint-order:stroke fill markers"
       id="rect4879-34-9-0"
       width="23.812494"
       height="5.2916665"
       x="60.835072"
       y="268.17557" />
    <rect
       style="opacity:1;fill:#ffffff;fill-opacity:0.99607843;stroke:#040000;stroke-width:0.56694663;stroke-linecap:round;stroke-linejoin:round;stroke-miterlimit:4;stroke-dasharray:none;stroke-dashoffset:0;stroke-opacity:1;paint-order:stroke fill markers"
       id="rect4879-3-4-9-8"
       width="23.812494"
       height="5.2916665"
       x="60.835072"
       y="276.1131" />
    <text
       xml:space="preserve"
       style="font-style:normal;font-variant:normal;font-weight:normal;font-stretch:normal;font-size:3.17499995px;line-height:1.25;font-family:'DejaVu Serif';-inkscape-font-specification:'DejaVu Serif';letter-spacing:0px;word-spacing:0px;fill:#000000;fill-opacity:1;stroke:none;stroke-width:0.26458332"
       x="66.751762"
       y="256.12463"
       id="text823-7-52-3-80-3"><tspan
         sodipodi:role="line"
         x="66.751762"
         y="256.12463"
         style="font-style:normal;font-variant:normal;font-weight:normal;font-stretch:normal;font-size:3.17499995px;font-family:'Gentium Basic';-inkscape-font-specification:'Gentium Basic';stroke-width:0.26458332"
         id="tspan4529-0-2-9-2-8">Pollution</tspan></text>
    <text
       xml:space="preserve"
       style="font-style:normal;font-variant:normal;font-weight:normal;font-stretch:normal;font-size:3.17499995px;line-height:1.25;font-family:'DejaVu Serif';-inkscape-font-specification:'DejaVu Serif';letter-spacing:0px;word-spacing:0px;fill:#000000;fill-opacity:1;stroke:none;stroke-width:0.26458332"
       x="63.279881"
       y="264.06213"
       id="text823-7-52-3-8-49-7"><tspan
         sodipodi:role="line"
         x="63.279881"
         y="264.06213"
         style="font-style:normal;font-variant:normal;font-weight:normal;font-stretch:normal;font-size:3.17499995px;font-family:'Gentium Basic';-inkscape-font-specification:'Gentium Basic';stroke-width:0.26458332"
         id="tspan4529-0-2-9-6-01-3">Niveau Océans</tspan></text>
    <text
       xml:space="preserve"
       style="font-style:normal;font-variant:normal;font-weight:normal;font-stretch:normal;font-size:3.17499995px;line-height:1.25;font-family:'DejaVu Serif';-inkscape-font-specification:'DejaVu Serif';letter-spacing:0px;word-spacing:0px;fill:#000000;fill-opacity:1;stroke:none;stroke-width:0.26458332"
       x="62.817116"
       y="271.99963"
       id="text823-7-52-3-8-4-2-1"><tspan
         sodipodi:role="line"
         x="62.817116"
         y="271.99963"
         style="font-style:normal;font-variant:normal;font-weight:normal;font-stretch:normal;font-size:3.17499995px;font-family:'Gentium Basic';-inkscape-font-specification:'Gentium Basic';stroke-width:0.26458332"
         id="tspan4529-0-2-9-6-0-0-0">Réchauffement</tspan></text>
    <text
       xml:space="preserve"
       style="font-style:normal;font-variant:normal;font-weight:normal;font-stretch:normal;font-size:3.17499995px;line-height:1.25;font-family:'DejaVu Serif';-inkscape-font-specification:'DejaVu Serif';letter-spacing:0px;word-spacing:0px;fill:#000000;fill-opacity:1;stroke:none;stroke-width:0.26458332"
       x="71.626656"
       y="278.91086"
       id="text823-7-52-3-8-4-3-0-0"><tspan
         sodipodi:role="line"
         x="71.626656"
         y="278.91086"
         style="font-style:normal;font-variant:normal;font-weight:normal;font-stretch:normal;font-size:3.17499995px;font-family:'Gentium Basic';-inkscape-font-specification:'Gentium Basic';stroke-width:0.26458332"
         id="tspan4529-0-2-9-6-0-5-6-5">...</tspan></text>
    <text
       xml:space="preserve"
       style="font-style:normal;font-variant:normal;font-weight:normal;font-stretch:normal;font-size:3.17499995px;line-height:1.25;font-family:'DejaVu Serif';-inkscape-font-specification:'DejaVu Serif';letter-spacing:0px;word-spacing:0px;fill:#000000;fill-opacity:1;stroke:none;stroke-width:0.26458332"
       x="103.92786"
       y="249.36829"
       id="text823-7-52-3-8-49-7-1"><tspan
         sodipodi:role="line"
         x="103.92786"
         y="249.36829"
         style="font-style:normal;font-variant:normal;font-weight:normal;font-stretch:normal;font-size:3.17499995px;font-family:'Gentium Basic';-inkscape-font-specification:'Gentium Basic';stroke-width:0.26458332"
         id="tspan4529-0-2-9-6-01-3-8">Faire le deuil</tspan></text>
    <path
       style="opacity:1;fill:#ffffff;fill-opacity:0.98391819;stroke:#040000;stroke-width:0.5;stroke-linecap:round;stroke-linejoin:round;stroke-miterlimit:4;stroke-dasharray:none;stroke-opacity:1;paint-order:stroke fill markers"
       d="m 95.230907,256.17484 v -2.55134 h 17.103383 17.10343 v 2.55134 2.55134 H 112.33429 95.230907 Z"
       id="path4873-0"
       inkscape:connector-curvature="0" />
    <text
       xml:space="preserve"
       style="font-style:normal;font-variant:normal;font-weight:normal;font-stretch:normal;font-size:3.17499995px;line-height:1.25;font-family:'DejaVu Serif';-inkscape-font-specification:'DejaVu Serif';letter-spacing:0px;word-spacing:0px;fill:#000000;fill-opacity:1;stroke:none;stroke-width:0.26458332"
       x="98.036736"
       y="257.30579"
       id="text823-7-52-3-8-49-7-1-1"><tspan
         sodipodi:role="line"
         x="98.036736"
         y="257.30579"
         style="font-style:normal;font-variant:normal;font-weight:normal;font-stretch:normal;font-size:3.17499995px;font-family:'Gentium Basic';-inkscape-font-specification:'Gentium Basic';stroke-width:0.26458332"
         id="tspan4529-0-2-9-6-01-3-8-7">Mes nouvelles valeurs</tspan></text>
    <path
       style="opacity:1;fill:#ffffff;fill-opacity:0.98391819;stroke:#040000;stroke-width:0.5;stroke-linecap:round;stroke-linejoin:round;stroke-miterlimit:4;stroke-dasharray:none;stroke-opacity:1;paint-order:stroke fill markers"
       d="m 95.230907,264.20683 v -2.55134 h 17.103423 17.10343 v 2.55134 2.55134 H 112.33433 95.230907 Z"
       id="path4873-9"
       inkscape:connector-curvature="0" />
    <text
       xml:space="preserve"
       style="font-style:normal;font-variant:normal;font-weight:normal;font-stretch:normal;font-size:3.17499995px;line-height:1.25;font-family:'DejaVu Serif';-inkscape-font-specification:'DejaVu Serif';letter-spacing:0px;word-spacing:0px;fill:#000000;fill-opacity:1;stroke:none;stroke-width:0.26458332"
       x="101.20633"
       y="265.33777"
       id="text823-7-52-3-8-49-7-1-10"><tspan
         sodipodi:role="line"
         x="101.20633"
         y="265.33777"
         style="font-style:normal;font-variant:normal;font-weight:normal;font-stretch:normal;font-size:3.17499995px;font-family:'Gentium Basic';-inkscape-font-specification:'Gentium Basic';stroke-width:0.26458332"
         id="tspan4529-0-2-9-6-01-3-8-3">Mon rôle citoyen</tspan></text>
    <path
       style="opacity:1;fill:#ffffff;fill-opacity:0.98391819;stroke:#040000;stroke-width:0.5;stroke-linecap:round;stroke-linejoin:round;stroke-miterlimit:4;stroke-dasharray:none;stroke-opacity:1;paint-order:stroke fill markers"
       d="m 95.230907,272.14433 v -2.55134 h 17.103423 17.10343 v 2.55134 2.55134 H 112.33433 95.230907 Z"
       id="path4873-8"
       inkscape:connector-curvature="0" />
    <text
       xml:space="preserve"
       style="font-style:normal;font-variant:normal;font-weight:normal;font-stretch:normal;font-size:3.17499995px;line-height:1.25;font-family:'DejaVu Serif';-inkscape-font-specification:'DejaVu Serif';letter-spacing:0px;word-spacing:0px;fill:#000000;fill-opacity:1;stroke:none;stroke-width:0.26458332"
       x="100.03035"
       y="273.27527"
       id="text823-7-52-3-8-49-7-1-4"><tspan
         sodipodi:role="line"
         x="100.03035"
         y="273.27527"
         style="font-style:normal;font-variant:normal;font-weight:normal;font-stretch:normal;font-size:3.17499995px;font-family:'Gentium Basic';-inkscape-font-specification:'Gentium Basic';stroke-width:0.26458332"
         id="tspan4529-0-2-9-6-01-3-8-6">Les métiers à venir</tspan></text>
    <path
       style="opacity:1;fill:#ffffff;fill-opacity:0.98391819;stroke:#040000;stroke-width:0.5;stroke-linecap:round;stroke-linejoin:round;stroke-miterlimit:4;stroke-dasharray:none;stroke-opacity:1;paint-order:stroke fill markers"
       d="m 95.230923,279.89284 v -2.55134 h 17.103387 17.10343 v 2.55134 2.55134 H 112.33431 95.230923 Z"
       id="path4873-0-9"
       inkscape:connector-curvature="0" />
    <text
       xml:space="preserve"
       style="font-style:normal;font-variant:normal;font-weight:normal;font-stretch:normal;font-size:3.17499995px;line-height:1.25;font-family:'DejaVu Serif';-inkscape-font-specification:'DejaVu Serif';letter-spacing:0px;word-spacing:0px;fill:#000000;fill-opacity:1;stroke:none;stroke-width:0.26458332"
       x="111.21967"
       y="280.04477"
       id="text823-7-52-3-8-49-7-1-1-2"><tspan
         sodipodi:role="line"
         x="111.21967"
         y="280.04477"
         style="font-style:normal;font-variant:normal;font-weight:normal;font-stretch:normal;font-size:3.17499995px;font-family:'Gentium Basic';-inkscape-font-specification:'Gentium Basic';stroke-width:0.26458332"
         id="tspan4529-0-2-9-6-01-3-8-7-9">...</tspan></text>
    <path
       style="opacity:1;fill:#ffffff;fill-opacity:0.98391819;stroke:#040000;stroke-width:0.5;stroke-linecap:round;stroke-linejoin:round;stroke-miterlimit:4;stroke-dasharray:none;stroke-opacity:1;paint-order:stroke fill markers"
       d="m 140.39907,254.85192 v -2.55134 h 10.48883 10.48884 v 2.55134 2.55134 H 150.8879 140.39906 Z"
       id="path4873-3"
       inkscape:connector-curvature="0" />
    <text
       xml:space="preserve"
       style="font-style:normal;font-variant:normal;font-weight:normal;font-stretch:normal;font-size:3.17499995px;line-height:1.25;font-family:'DejaVu Serif';-inkscape-font-specification:'DejaVu Serif';letter-spacing:0px;word-spacing:0px;fill:#000000;fill-opacity:1;stroke:none;stroke-width:0.26458332"
       x="146.38809"
       y="256.03015"
       id="text823-7-52-3-8-49-7-1-19"><tspan
         sodipodi:role="line"
         x="146.38809"
         y="256.03015"
         style="font-style:normal;font-variant:normal;font-weight:normal;font-stretch:normal;font-size:3.17499995px;font-family:'Gentium Basic';-inkscape-font-specification:'Gentium Basic';stroke-width:0.26458332"
         id="tspan4529-0-2-9-6-01-3-8-4">Militer</tspan></text>
    <path
       style="opacity:1;fill:#ffffff;fill-opacity:0.98391819;stroke:#040000;stroke-width:0.5;stroke-linecap:round;stroke-linejoin:round;stroke-miterlimit:4;stroke-dasharray:none;stroke-opacity:1;paint-order:stroke fill markers"
       d="m 140.21007,278.66442 v -2.55134 h 14.45759 14.45759 v 2.55134 2.55134 h -14.45759 -14.45759 z"
       id="path4873-3-5-3"
       inkscape:connector-curvature="0" />
    <text
       xml:space="preserve"
       style="font-style:normal;font-variant:normal;font-weight:normal;font-stretch:normal;font-size:3.17499995px;line-height:1.25;font-family:'DejaVu Serif';-inkscape-font-specification:'DejaVu Serif';letter-spacing:0px;word-spacing:0px;fill:#000000;fill-opacity:1;stroke:none;stroke-width:0.26458332"
       x="153.55299"
       y="278.81635"
       id="text823-7-52-3-8-49-7-1-19-9-9"><tspan
         sodipodi:role="line"
         x="153.55299"
         y="278.81635"
         style="font-style:normal;font-variant:normal;font-weight:normal;font-stretch:normal;font-size:3.17499995px;font-family:'Gentium Basic';-inkscape-font-specification:'Gentium Basic';stroke-width:0.26458332"
         id="tspan4529-0-2-9-6-01-3-8-4-5-2">...</tspan></text>
    <path
       style="opacity:1;fill:#ffffff;fill-opacity:0.98391819;stroke:#040000;stroke-width:0.5;stroke-linecap:round;stroke-linejoin:round;stroke-miterlimit:4;stroke-dasharray:none;stroke-opacity:1;paint-order:stroke fill markers"
       d="m 177.25174,278.66442 v -2.55134 h 14.45759 14.4576 v 2.55134 2.55134 h -14.4576 -14.45759 z"
       id="path4873-3-2-6-4"
       inkscape:connector-curvature="0" />
    <text
       xml:space="preserve"
       style="font-style:normal;font-variant:normal;font-weight:normal;font-stretch:normal;font-size:3.17499995px;line-height:1.25;font-family:'DejaVu Serif';-inkscape-font-specification:'DejaVu Serif';letter-spacing:0px;word-spacing:0px;fill:#000000;fill-opacity:1;stroke:none;stroke-width:0.26458332"
       x="190.59468"
       y="278.81635"
       id="text823-7-52-3-8-49-7-1-19-0-1-4"><tspan
         sodipodi:role="line"
         x="190.59468"
         y="278.81635"
         style="font-style:normal;font-variant:normal;font-weight:normal;font-stretch:normal;font-size:3.17499995px;font-family:'Gentium Basic';-inkscape-font-specification:'Gentium Basic';stroke-width:0.26458332"
         id="tspan4529-0-2-9-6-01-3-8-4-6-1-4">...</tspan></text>
    <path
       style="opacity:1;fill:#ffffff;fill-opacity:0.98391819;stroke:#040000;stroke-width:0.5;stroke-linecap:round;stroke-linejoin:round;stroke-miterlimit:4;stroke-dasharray:none;stroke-opacity:1;paint-order:stroke fill markers"
       d="m 162.60517,254.94641 v -2.55134 h 1.22842 1.22843 v 2.55134 2.55134 h -1.22843 -1.22842 z"
       id="path4873-3-9"
       inkscape:connector-curvature="0" />
    <path
       style="opacity:1;fill:#ffffff;fill-opacity:0.98391819;stroke:#040000;stroke-width:0.5;stroke-linecap:round;stroke-linejoin:round;stroke-miterlimit:4;stroke-dasharray:none;stroke-opacity:1;paint-order:stroke fill markers"
       d="m 166.38493,254.94641 v -2.55134 h 1.22842 1.22843 v 2.55134 2.55134 h -1.22843 -1.22842 z"
       id="path4873-3-9-9"
       inkscape:connector-curvature="0" />
    <path
       style="opacity:1;fill:#ffffff;fill-opacity:0.98391819;stroke:#040000;stroke-width:0.5;stroke-linecap:round;stroke-linejoin:round;stroke-miterlimit:4;stroke-dasharray:none;stroke-opacity:1;paint-order:stroke fill markers"
       d="m 177.25174,254.94641 v -2.55134 h 10.48884 10.48884 v 2.55134 2.55134 h -10.48884 -10.48884 z"
       id="path4873-3-3"
       inkscape:connector-curvature="0" />
    <text
       xml:space="preserve"
       style="font-style:normal;font-variant:normal;font-weight:normal;font-stretch:normal;font-size:3.17499995px;line-height:1.25;font-family:'DejaVu Serif';-inkscape-font-specification:'DejaVu Serif';letter-spacing:0px;word-spacing:0px;fill:#000000;fill-opacity:1;stroke:none;stroke-width:0.26458332"
       x="180.63092"
       y="256.12463"
       id="text823-7-52-3-8-49-7-1-19-8"><tspan
         sodipodi:role="line"
         x="180.63092"
         y="256.12463"
         style="font-style:normal;font-variant:normal;font-weight:normal;font-stretch:normal;font-size:3.17499995px;font-family:'Gentium Basic';-inkscape-font-specification:'Gentium Basic';stroke-width:0.26458332"
         id="tspan4529-0-2-9-6-01-3-8-4-3">Res. Territ.</tspan></text>
    <path
       style="opacity:1;fill:#ffffff;fill-opacity:0.98391819;stroke:#040000;stroke-width:0.5;stroke-linecap:round;stroke-linejoin:round;stroke-miterlimit:4;stroke-dasharray:none;stroke-opacity:1;paint-order:stroke fill markers"
       d="m 199.45784,254.94641 v -2.55134 h 1.22842 1.22843 v 2.55134 2.55134 h -1.22843 -1.22842 z"
       id="path4873-3-9-2"
       inkscape:connector-curvature="0" />
    <path
       style="opacity:1;fill:#ffffff;fill-opacity:0.98391819;stroke:#040000;stroke-width:0.5;stroke-linecap:round;stroke-linejoin:round;stroke-miterlimit:4;stroke-dasharray:none;stroke-opacity:1;paint-order:stroke fill markers"
       d="m 203.2376,254.94641 v -2.55134 h 1.22842 1.22843 v 2.55134 2.55134 h -1.22843 -1.22842 z"
       id="path4873-3-9-9-9"
       inkscape:connector-curvature="0" />
    <path
       style="opacity:1;fill:#ffffff;fill-opacity:0.98391819;stroke:#040000;stroke-width:0.5;stroke-linecap:round;stroke-linejoin:round;stroke-miterlimit:4;stroke-dasharray:none;stroke-opacity:1;paint-order:stroke fill markers"
       d="m 140.39906,262.78942 v -2.55134 h 10.48884 10.48884 v 2.55134 2.55134 H 150.8879 140.39906 Z"
       id="path4873-3-5"
       inkscape:connector-curvature="0" />
    <text
       xml:space="preserve"
       style="font-style:normal;font-variant:normal;font-weight:normal;font-stretch:normal;font-size:3.17499995px;line-height:1.25;font-family:'DejaVu Serif';-inkscape-font-specification:'DejaVu Serif';letter-spacing:0px;word-spacing:0px;fill:#000000;fill-opacity:1;stroke:none;stroke-width:0.26458332"
       x="145.69124"
       y="263.96765"
       id="text823-7-52-3-8-49-7-1-19-4"><tspan
         sodipodi:role="line"
         x="145.69124"
         y="263.96765"
         style="font-style:normal;font-variant:normal;font-weight:normal;font-stretch:normal;font-size:3.17499995px;font-family:'Gentium Basic';-inkscape-font-specification:'Gentium Basic';stroke-width:0.26458332"
         id="tspan4529-0-2-9-6-01-3-8-4-39">Innover</tspan></text>
    <path
       style="opacity:1;fill:#ffffff;fill-opacity:0.98391819;stroke:#040000;stroke-width:0.5;stroke-linecap:round;stroke-linejoin:round;stroke-miterlimit:4;stroke-dasharray:none;stroke-opacity:1;paint-order:stroke fill markers"
       d="m 162.60517,262.88391 v -2.55134 h 1.22842 1.22843 v 2.55134 2.55134 h -1.22843 -1.22842 z"
       id="path4873-3-9-4"
       inkscape:connector-curvature="0" />
    <path
       style="opacity:1;fill:#ffffff;fill-opacity:0.98391819;stroke:#040000;stroke-width:0.5;stroke-linecap:round;stroke-linejoin:round;stroke-miterlimit:4;stroke-dasharray:none;stroke-opacity:1;paint-order:stroke fill markers"
       d="m 166.38492,262.88391 v -2.55134 h 1.22842 1.22843 v 2.55134 2.55134 h -1.22843 -1.22842 z"
       id="path4873-3-9-9-95"
       inkscape:connector-curvature="0" />
    <path
       style="opacity:1;fill:#ffffff;fill-opacity:0.98391819;stroke:#040000;stroke-width:0.5;stroke-linecap:round;stroke-linejoin:round;stroke-miterlimit:4;stroke-dasharray:none;stroke-opacity:1;paint-order:stroke fill markers"
       d="m 177.25173,262.88391 v -2.55134 h 10.48884 10.48884 v 2.55134 2.55134 h -10.48884 -10.48884 z"
       id="path4873-3-3-5"
       inkscape:connector-curvature="0" />
    <text
       xml:space="preserve"
       style="font-style:normal;font-variant:normal;font-weight:normal;font-stretch:normal;font-size:3.17499995px;line-height:1.25;font-family:'DejaVu Serif';-inkscape-font-specification:'DejaVu Serif';letter-spacing:0px;word-spacing:0px;fill:#000000;fill-opacity:1;stroke:none;stroke-width:0.26458332"
       x="180.772"
       y="264.06213"
       id="text823-7-52-3-8-49-7-1-19-8-7"><tspan
         sodipodi:role="line"
         x="180.772"
         y="264.06213"
         style="font-style:normal;font-variant:normal;font-weight:normal;font-stretch:normal;font-size:3.17499995px;font-family:'Gentium Basic';-inkscape-font-specification:'Gentium Basic';stroke-width:0.26458332"
         id="tspan4529-0-2-9-6-01-3-8-4-3-3">Low-Techs</tspan></text>
    <path
       style="opacity:1;fill:#ffffff;fill-opacity:0.98391819;stroke:#040000;stroke-width:0.5;stroke-linecap:round;stroke-linejoin:round;stroke-miterlimit:4;stroke-dasharray:none;stroke-opacity:1;paint-order:stroke fill markers"
       d="m 199.45784,262.88391 v -2.55134 h 1.22842 1.22843 v 2.55134 2.55134 h -1.22843 -1.22842 z"
       id="path4873-3-9-2-9"
       inkscape:connector-curvature="0" />
    <path
       style="opacity:1;fill:#ffffff;fill-opacity:0.98391819;stroke:#040000;stroke-width:0.5;stroke-linecap:round;stroke-linejoin:round;stroke-miterlimit:4;stroke-dasharray:none;stroke-opacity:1;paint-order:stroke fill markers"
       d="m 203.2376,262.88391 v -2.55134 h 1.22842 1.22843 v 2.55134 2.55134 h -1.22843 -1.22842 z"
       id="path4873-3-9-9-9-0"
       inkscape:connector-curvature="0" />
    <path
       style="opacity:1;fill:#ffffff;fill-opacity:0.98391819;stroke:#040000;stroke-width:0.5;stroke-linecap:round;stroke-linejoin:round;stroke-miterlimit:4;stroke-dasharray:none;stroke-opacity:1;paint-order:stroke fill markers"
       d="m 140.39907,270.72692 v -2.55134 h 10.48883 10.48884 v 2.55134 2.55134 H 150.8879 140.39906 Z"
       id="path4873-3-7"
       inkscape:connector-curvature="0" />
    <text
       xml:space="preserve"
       style="font-style:normal;font-variant:normal;font-weight:normal;font-stretch:normal;font-size:3.17499995px;line-height:1.25;font-family:'DejaVu Serif';-inkscape-font-specification:'DejaVu Serif';letter-spacing:0px;word-spacing:0px;fill:#000000;fill-opacity:1;stroke:none;stroke-width:0.26458332"
       x="145.27507"
       y="271.90515"
       id="text823-7-52-3-8-49-7-1-19-2"><tspan
         sodipodi:role="line"
         x="145.27507"
         y="271.90515"
         style="font-style:normal;font-variant:normal;font-weight:normal;font-stretch:normal;font-size:3.17499995px;font-family:'Gentium Basic';-inkscape-font-specification:'Gentium Basic';stroke-width:0.26458332"
         id="tspan4529-0-2-9-6-01-3-8-4-7">Green IT</tspan></text>
    <path
       style="opacity:1;fill:#ffffff;fill-opacity:0.98391819;stroke:#040000;stroke-width:0.5;stroke-linecap:round;stroke-linejoin:round;stroke-miterlimit:4;stroke-dasharray:none;stroke-opacity:1;paint-order:stroke fill markers"
       d="m 162.60517,270.82141 v -2.55134 h 1.22842 1.22843 v 2.55134 2.55134 h -1.22843 -1.22842 z"
       id="path4873-3-9-29"
       inkscape:connector-curvature="0" />
    <path
       style="opacity:1;fill:#ffffff;fill-opacity:0.98391819;stroke:#040000;stroke-width:0.5;stroke-linecap:round;stroke-linejoin:round;stroke-miterlimit:4;stroke-dasharray:none;stroke-opacity:1;paint-order:stroke fill markers"
       d="m 166.38493,270.82141 v -2.55134 h 1.22842 1.22843 v 2.55134 2.55134 h -1.22843 -1.22842 z"
       id="path4873-3-9-9-0"
       inkscape:connector-curvature="0" />
    <path
       style="opacity:1;fill:#ffffff;fill-opacity:0.98391819;stroke:#040000;stroke-width:0.5;stroke-linecap:round;stroke-linejoin:round;stroke-miterlimit:4;stroke-dasharray:none;stroke-opacity:1;paint-order:stroke fill markers"
       d="m 177.25174,270.82141 v -2.55134 h 10.48884 10.48884 v 2.55134 2.55134 h -10.48884 -10.48884 z"
       id="path4873-3-3-50"
       inkscape:connector-curvature="0" />
    <text
       xml:space="preserve"
       style="font-style:normal;font-variant:normal;font-weight:normal;font-stretch:normal;font-size:3.17499995px;line-height:1.25;font-family:'DejaVu Serif';-inkscape-font-specification:'DejaVu Serif';letter-spacing:0px;word-spacing:0px;fill:#000000;fill-opacity:1;stroke:none;stroke-width:0.26458332"
       x="183.54005"
       y="271.99963"
       id="text823-7-52-3-8-49-7-1-19-8-4"><tspan
         sodipodi:role="line"
         x="183.54005"
         y="271.99963"
         style="font-style:normal;font-variant:normal;font-weight:normal;font-stretch:normal;font-size:3.17499995px;font-family:'Gentium Basic';-inkscape-font-specification:'Gentium Basic';stroke-width:0.26458332"
         id="tspan4529-0-2-9-6-01-3-8-4-3-1">Survie</tspan></text>
    <path
       style="opacity:1;fill:#ffffff;fill-opacity:0.98391819;stroke:#040000;stroke-width:0.5;stroke-linecap:round;stroke-linejoin:round;stroke-miterlimit:4;stroke-dasharray:none;stroke-opacity:1;paint-order:stroke fill markers"
       d="m 199.45784,270.82141 v -2.55134 h 1.22842 1.22843 v 2.55134 2.55134 h -1.22843 -1.22842 z"
       id="path4873-3-9-2-7"
       inkscape:connector-curvature="0" />
    <path
       style="opacity:1;fill:#ffffff;fill-opacity:0.98391819;stroke:#040000;stroke-width:0.5;stroke-linecap:round;stroke-linejoin:round;stroke-miterlimit:4;stroke-dasharray:none;stroke-opacity:1;paint-order:stroke fill markers"
       d="m 203.2376,270.82141 v -2.55134 h 1.22842 1.22843 v 2.55134 2.55134 h -1.22843 -1.22842 z"
       id="path4873-3-9-9-9-9"
       inkscape:connector-curvature="0" />
    <path
       style="fill:#c2e9ff;fill-opacity:0.99607843;stroke:#000000;stroke-width:0.26458332px;stroke-linecap:butt;stroke-linejoin:miter;stroke-opacity:1"
       d="m 82.00174,216.58183 c 1.161527,0.77163 2.323054,1.54327 3.484581,2.3149 -4.714304,2.56025 -9.42861,5.1205 -14.142915,7.68076 0.890233,0.42399 1.780465,0.84798 2.670697,1.27197 -3.247385,0.85613 -6.49477,1.71227 -9.742155,2.5684 1.619616,-2.94199 3.239233,-5.88398 4.858849,-8.82597 0.194947,0.96658 0.389894,1.93316 0.58484,2.89974 3.629126,-3.95083 7.258252,-7.90165 10.887378,-11.85247 0.466242,1.31422 0.932483,2.62845 1.398725,3.94267 z"
       id="path5507"
       inkscape:connector-curvature="0" />
    <path
       style="fill:#ffe7c2;fill-opacity:0.98039216;stroke:#000000;stroke-width:0.26458332px;stroke-linecap:butt;stroke-linejoin:miter;stroke-opacity:1"
       d="m 140.21007,216.58183 c -1.16152,0.77163 -2.32305,1.54327 -3.48458,2.3149 4.71431,2.56025 9.42861,5.1205 14.14292,7.68076 -0.89024,0.42399 -1.78047,0.84798 -2.6707,1.27197 3.24739,0.85613 6.49477,1.71227 9.74216,2.5684 -1.61962,-2.94199 -3.23924,-5.88398 -4.85885,-8.82597 -0.19495,0.96658 -0.3899,1.93316 -0.58484,2.89974 -3.62913,-3.95083 -7.25826,-7.90165 -10.88738,-11.85247 -0.46624,1.31422 -0.93248,2.62845 -1.39873,3.94267 z"
       id="path5507-1"
       inkscape:connector-curvature="0" />
    <path
       style="fill:#aeffb5;fill-opacity:1;stroke:#000000;stroke-width:0.24398889px;stroke-linecap:butt;stroke-linejoin:miter;stroke-opacity:1"
       d="m 111.78175,218.37701 c -1.9828,-0.25066 -3.96561,-0.50133 -5.94842,-0.752 1.31655,3.00198 2.6331,6.00395 3.94966,9.00593 -1.32172,-0.25049 -2.64344,-0.50098 -3.96515,-0.75147 1.97999,1.75148 3.95998,3.50296 5.93998,5.25444 1.98656,-1.75041 3.97312,-3.50083 5.95969,-5.25124 -1.32265,0.24978 -2.64531,0.49956 -3.96796,0.74934 1.32781,-3.00127 2.65563,-6.00254 3.98346,-9.0038 -1.98375,0.2496 -3.9675,0.4992 -5.95126,0.7488 z"
       id="path5507-1-2"
       inkscape:connector-curvature="0" />
    <text
       xml:space="preserve"
       style="font-style:normal;font-variant:normal;font-weight:normal;font-stretch:normal;font-size:25.39999962px;line-height:1.25;font-family:'DejaVu Serif';-inkscape-font-specification:'DejaVu Serif';letter-spacing:0px;word-spacing:0px;fill:#464646;fill-opacity:1;stroke:none;stroke-width:0.26458332"
       x="3.3950081"
       y="291.1297"
       id="text823-7-52-5"><tspan
         sodipodi:role="line"
         x="3.3950081"
         y="291.1297"
         style="font-style:normal;font-variant:normal;font-weight:normal;font-stretch:normal;font-size:3.88055563px;font-family:'Gentium Basic';-inkscape-font-specification:'Gentium Basic';fill:#464646;fill-opacity:1;stroke-width:0.26458332"
         id="tspan4529-0-2-3">+ actualités, données, liens, experts &amp; scientifiques...</tspan></text>
    <text
       xml:space="preserve"
       style="font-style:normal;font-variant:normal;font-weight:normal;font-stretch:normal;font-size:25.39999962px;line-height:1.25;font-family:'DejaVu Serif';-inkscape-font-specification:'DejaVu Serif';letter-spacing:0px;word-spacing:0px;fill:#464646;fill-opacity:1;stroke:none;stroke-width:0.26458332"
       x="136.97179"
       y="291.2955"
       id="text823-7-52-5-8"><tspan
         sodipodi:role="line"
         x="136.97179"
         y="291.2955"
         style="font-style:normal;font-variant:normal;font-weight:normal;font-stretch:normal;font-size:3.88055563px;font-family:'Gentium Basic';-inkscape-font-specification:'Gentium Basic';fill:#464646;fill-opacity:1;stroke-width:0.26458332"
         id="tspan4529-0-2-3-8">+ annuaires, outils...</tspan></text>
    <text
       xml:space="preserve"
       style="font-style:normal;font-variant:normal;font-weight:normal;font-stretch:normal;font-size:25.39999962px;line-height:1.25;font-family:'DejaVu Serif';-inkscape-font-specification:'DejaVu Serif';letter-spacing:0px;word-spacing:0px;fill:#464646;fill-opacity:1;stroke:none;stroke-width:0.26458332"
       x="93.693512"
       y="291.2955"
       id="text823-7-52-5-8-7"><tspan
         sodipodi:role="line"
         x="93.693512"
         y="291.2955"
         style="font-style:normal;font-variant:normal;font-weight:normal;font-stretch:normal;font-size:3.88055563px;font-family:'Gentium Basic';-inkscape-font-specification:'Gentium Basic';fill:#464646;fill-opacity:1;stroke-width:0.26458332"
         id="tspan4529-0-2-3-8-0">+ tests, liens...</tspan></text>
  </g>
</svg>
